Project 3
…
Check MCAR

## # A tibble: 188 x 7
##    id      age gender treatment   day mem_comp missing
##    <fct> <int> <fct>  <fct>     <dbl>    <dbl> <fct>  
##  1 1021     44 M      high_dose    0.  -0.0339 1      
##  2 1022     40 M      low_dose     0.  -0.122  1      
##  3 1023     52 F      placebo      0.   0.856  1      
##  4 1024     50 M      placebo      0.   0.724  1      
##  5 1026     44 F      placebo      0.   0.549  1      
##  6 1027     46 M      high_dose    0.  -0.531  1      
##  7 1028     34 M      low_dose     0.   1.64   1      
##  8 1029     48 M      low_dose     0.  -0.709  1      
##  9 1030     40 F      low_dose     0.  -0.868  1      
## 10 1031     38 F      high_dose    0.   0.307  1      
## # ... with 178 more rows
…
